* GregTech 4
- 4057 # Block of Lead
- 4057:1 # Block of Electrum
- 4057:2 # Block of Zinc
- 4057:3 # Block of Olivine
- 4057:4 # Block of Green Sapphire
- 4057:5 # Block of Platinum
- 4057:6 # Block of Tungsten
- 4057:7 # Block of Nickel
- 4057:10 # Block of Invar
- 4057:11 # Block of Osmium
- 4057:12 # Block of Iridium
- 4057:13 # Bronze Plated Bricks
- 4057:14 # Block of Yellow Garnet
- 4057:15 # Block of Red Garnet
- 4058:1 # Fusion Coil
- 4058:3 # Block of Silver
- 4058:4 # Block of Ruby
- 4058:5 # Block of Sapphire
- 4058:7 # Block of Aluminium
- 4058:8 # Block of Titanium
- 4058:9 # Block of Chrome
- 4058:11 # Block of Steel
- 4058:12 # Block of Brass
- 4058:15 # Advanced Machine Casing
- 4059:6;Block # Sonictron
- 4059:31 # Implosion Compressor
- 4059:34 # Gas Turbine
- 4059:36 # Semifluid Generator
- 4059:38 # Vacuum Freezer
- 4059:44 # Distillation Tower
- 4059:47 # Advanced Pump
- 4059:56 # Alloy Smelter
- 4059:74 # Compartment
- 4059:77 # Player Detector
- 4059:87 # Battery Box
- 4059:90 # Teleporter
- 4059:91 # Input Hatch
- 4059:92 # Output Hatch
- 4059:93 # Maintenance Hatch
- 4059:96 # Muffler Hatch
- 4059:97 # Input Bus
- 4059:98 # Output Bus
+ 4059:100;Adjustable Energy Storage Unit # AESU
+ 4059:101;Interdimensional Energy Storage Unit # IDSU
- 4059:108 # Large Gas Turbine
- 4059:109 # Large Steam Turbine
- 4059:112 # Advanced Crafting Table
- 4059:114 # Scanner
- 4059:129 # Small Coal Boiler
- 4059:131 # Steam Furnace
- 4059:134 # Steam Compressor
- 4059:136;GregTech 4 Machine # Bronze Blast Furnace
- 4059:137 # High Pressure Coal Boiler
- 4059:1800 # Bronze Fluid Pipe
- 4059:1802 # Stainless Steel Fluid Pipe
- 4059:1825 # Small Bronze Fluid Pipe
- 4059:1827 # Small Stainless Steel Fluid Pipe
- 4059:1850 # Large Bronze Fluid Pipe
- 4059:1852 # Large Stainless Steel Fluid Pipe
- 4059:1900 # Brass Item Pipe
- 4059:1950 # Large Brass Item Pipe
- 4060:1 # Galena Ore
- 4060:2 # Iridium Ore
- 4060:3 # Ruby Ore
- 4060:4 # Sapphire Ore
- 4060:5 # Bauxite Ore
- 4060:6 # Pyrite Ore
- 4060:7 # Cinnabar Ore
- 4060:8 # Sphalerite Ore
- 4060:10 # Sheldonite Ore
- 4060:11 # Olivine Ore
- 4060:12 # Sodalite Ore
- 4060:13 # Tetrahedrite Ore
- 4060:14 # Cassiterite Ore
- 4060:15 # Nickel Ore
- 4062 # Black Granite
- 4062:1 # Black Granite Cobblestone
- 4062:2 # Mossy Black Granite Cobblestone
- 4062:3 # Black Granite Bricks
- 4062:4 # Cracked Black Granite Bricks
- 4062:5 # Mossy Black Granite Bricks
- 4062:6 # Chiseled Black Granite
- 4062:7 # Smooth Black Granite
- 4062:8 # Red Granite
- 4062:9 # Red Granite Cobblestone
- 4062:10 # Mossy Red Granite Cobblestone
- 4062:11 # Red Granite Bricks
- 4062:12 # Cracked Red Granite Bricks
- 4062:13 # Mossy Red Granite Bricks
- 4062:14 # Chiseled Red Granite
- 4062:15 # Smooth Red Granite
- 21256:4 # Iridium Alloy Ingot
- 21256:5 # Hot Tungstensteel Ingot
- 21256:6 # Tungstensteel Ingot
- 21256:7 # Oil Berry
- 21256:8 # Indigo Blossom
- 21256:9 # Indigo Dye
- 21256:13 # Magnalium Plate
- 21256:14 # Flour
- 21256:16 # Iridium Ingot
- 21256:17 # Silver Ingot
- 21256:18 # Aluminium Ingot
- 21256:19 # Titanium Ingot
- 21256:20 # Chrome Ingot
- 21256:21 # Electrum Ingot
- 21256:22 # Tungsten Ingot
- 21256:23 # Lead Ingot
- 21256:24 # Zinc Ingot
- 21256:25 # Brass Ingot
- 21256:26 # Steel Ingot
- 21256:27 # Platinum Ingot
- 21256:28 # Nickel Ingot
- 21256:29 # Invar Ingot
- 21256:30 # Osmium Ingot
- 21256:31 # Antimony Ingot
- 21256:32 # Ruby
- 21256:33 # Sapphire
- 21256:34 # Green Sapphire
- 21256:36 # Silicon Plate
- 21256:37 # Olivine
- 21256:38 # Thorium Ingot
- 21256:40 # Magnalium Ingot
- 21256:41 # Soldering Alloy Ingot
- 21256:42 # Battery Alloy Ingot
- 21256:43 # Uranium Ingot
- 21256:44 # Stainless Steel Ingot
- 21256:45 # Cupronickel Ingot
- 21256:46 # Nichrome Ingot
- 21256:47 # Kanthal Ingot
- 21256:54 # Red Garnet
- 21256:55 # Yellow Garnet
- 21256:58 # Yellow Garnet Plate
- 21256:59 # Red Garnet Plate
- 21256:60 # Oak Plank
- 21256:61 # Spruce Plank
- 21256:62 # Birch Plank
- 21256:63 # Jungle Plank
- 21256:64 # Iron Plate
- 21256:65 # Gold Plate
- 21256:66 # Stainless Steel Plate
- 21256:67 # Tin Plate
- 21256:68 # Copper Plate
- 21256:69 # Silver Plate
- 21256:70 # Bronze Plate
- 21256:71 # Electrum Plate
- 21256:72 # Nickel Plate
- 21256:73 # Invar Plate
- 21256:74 # Lead Plate
- 21256:75 # Aluminium Plate
- 21256:76 # Chrome Plate
- 21256:77 # Titanium Plate
- 21256:78 # Steel Plate
- 21256:79 # Platinum Plate
- 21256:80 # Tungsten Plate
- 21256:81 # Brass Plate
- 21256:82 # Zinc Plate
- 21256:83 # Tungstensteel Plate
- 21256:84 # Osmium Plate
- 21256:85 # Iridium Plate
- 21256:86 # Battery Alloy Plate
- 21256:87 # Diamond Plate
- 21256:88 # Emerald Plate
- 21256:89 # Ruby Plate
- 21256:90 # Sapphire Plate
- 21256:91 # Green Sapphire Plate
- 21256:92 # Olivine Plate
- 21256:93 # Redstone Plate
- 21256:94 # Lapis Plate
- 21256:96 # Iron Rod
- 21256:97 # Gold Rod
- 21256:98 # Stainless Steel Rod
- 21256:99 # Tin Rod
- 21256:100 # Copper Rod
- 21256:101 # Silver Rod
- 21256:102 # Bronze Rod
- 21256:103 # Electrum Rod
- 21256:104 # Nickel Rod
- 21256:105 # Invar Rod
- 21256:106 # Lead Rod
- 21256:107 # Aluminium Rod
- 21256:108 # Chrome Rod
- 21256:109 # Titanium Rod
- 21256:110 # Steel Rod
- 21256:111 # Platinum Rod
- 21256:112 # Tungsten Rod
- 21256:113 # Brass Rod
- 21256:115 # Tungstensteel Rod
- 21256:116 # Osmium Rod
- 21256:117 # Iridium Rod
- 21256:256 # Diamond Lense
- 21256:258 # Emerald Lense
- 21256:260 # Green Sapphire Lense
- 21256:264 # Amber Lense
- 21256:320 # Iron Bolt
- 21256:321 # Gold Bolt
- 21256:322 # Stainless Steel Bolt
- 21256:323 # Tin Bolt
- 21256:324 # Copper Bolt
- 21256:325 # Silver Bolt
- 21256:326 # Bronze Bolt
- 21256:327 # Electrum Bolt
- 21256:328 # Nickel Bolt
- 21256:329 # Invar Bolt
- 21256:330 # Lead Bolt
- 21256:331 # Aluminium Bolt
- 21256:332 # Chrome Bolt
- 21256:333 # Titanium Bolt
- 21256:334 # Steel Bolt
- 21256:335 # Platinum Bolt
- 21256:336 # Tungsten Bolt
- 21256:337 # Brass Bolt
- 21256:339 # Tungstensteel Bolt
- 21256:340 # Osmium Bolt
- 21256:341 # Iridium Bolt
- 21256:384 # Iron Screw
- 21256:385 # Gold Screw
- 21256:386 # Stainless Steel Screw
- 21256:387 # Tin Screw
- 21256:389 # Silver Screw
- 21256:390 # Bronze Screw
- 21256:391 # Electrum Screw
- 21256:392 # Nickel Screw
- 21256:393 # Invar Screw
- 21256:394 # Lead Screw
- 21256:395 # Aluminium Screw
- 21256:396 # Chrome Screw
- 21256:397 # Titanium Screw
- 21256:398 # Steel Screw
- 21256:399 # Platinum Screw
- 21256:400 # Tungsten Screw
- 21256:401 # Brass Screw
- 21256:403 # Tungstensteel Screw
- 21256:404 # Osmium Screw
- 21256:405 # Iridium Screw
- 21257 # Ender Pearl Dust
- 21257:2 # Lazurite Dust
- 21257:3 # Pyrite Dust
- 21257:4 # Calcite Dust
- 21257:5 # Sodalite Dust
- 21257:6 # Netherrack Dust
- 21257:7 # Flint Dust
- 21257:8 # Sulfur Dust
- 21257:9 # Saltpeter Dust
- 21257:10 # Endstone Dust
- 21257:11 # Cinnabar Dust
- 21257:12 # Manganese Dust
- 21257:13 # Magnesium Dust
- 21257:14 # Sphalerite Dust
- 21257:15 # Wood Pulp
- 21257:17 # Bauxite Dust
- 21257:18 # Aluminium Dust
- 21257:19 # Titanium Dust
- 21257:20 # Chrome Dust
- 21257:21 # Electrum Dust
- 21257:22 # Tungsten Dust
- 21257:23 # Lead Dust
- 21257:24 # Zinc Dust
- 21257:25 # Brass Dust
- 21257:26 # Steel Dust
- 21257:27 # Platinum Dust
- 21257:28 # Nickel Dust
- 21257:29 # Invar Dust
- 21257:30 # Osmium Dust
- 21257:31 # Antimony Dust
- 21257:32 # Ruby Dust
- 21257:33 # Sapphire Dust
- 21257:34 # Green Sapphire Dust
- 21257:35 # Emerald Dust
- 21257:36 # Diamond Dust
- 21257:37 # Olivine Dust
- 21257:40 # Cupronickel Dust
- 21257:41 # Nichrome Dust
- 21257:42 # Kanthal Dust
- 21257:43 # Stainless Steel Dust
- 21257:44 # Galena Dust
- 21257:45 # Phosphorus Dust
- 21257:46 # Obsidian Dust
- 21257:47 # Charcoal Dust
- 21257:54 # Red Garnet Dust
- 21257:55 # Yellow Garnet Dust
- 21257:56 # Pyrope Dust
- 21257:57 # Almandine Dust
- 21257:58 # Spessartine Dust
- 21257:59 # Andradite Dust
- 21257:60 # Grossular Dust
- 21257:61 # Uvarovite Dust
- 21257:62 # Ashes
- 21257:63 # Dark Ashes
- 21257:64 # Redrock Dust
- 21257:65 # Marble Dust
- 21257:66 # Basalt Dust
- 21257:67 # Iridium Dust
- 21257:68 # Black Granite Dust
- 21257:69 # Red Granite Dust
- 21257:70 # Potassium Feldspar Dust
- 21257:71 # Biotite Dust
- 21257:80 # Thorium Dust
- 21257:238 # Lapis Lazuli Dust
- 21257:239 # Tetrahedrite Dust
- 21257:240 # Coal Dust
- 21257:241 # Iron Dust
- 21257:242 # Gold Dust
- 21257:243 # Copper Dust
- 21257:244 # Tin Dust
- 21257:245 # Bronze Dust
- 21257:246 # Silver Dust
- 21257:247 # Clay Dust
- 21258:20 # Biomass Cell
- 21259:2 # Superconductor
- 21259:4 # Computer Monitor
- 21259:7 # Solar Panel
- 21259:16 # BrainTech Aerospace Advanced Reinforced Duct Tape FAL-84
- 21259:17 # Diamond Sawblade
- 21259:24 # Advanced Circuit Parts
- 21259:48 # Basic Circuit Board
- 21259:49 # Advanced Circuit Board
- 21259:51 # Bronze Turbine Blade
- 21259:52 # Steel Turbine Blade
- 21259:53 # Magnalium Turbine Blade
- 21259:54 # Tungstensteel Turbine Blade
- 21259:55 # Carbon Turbine Blade
- 21259:96 # Iron Gear
- 21259:97 # Bronze Gear
- 21259:98 # Steel Gear
- 21259:99 # Titanium Gear
- 21259:100 # Tungstensteel Gear
- 21259:102 # Stainless Steel Gear
- 21259:199 # Empty Shape Plate
- 21259:250 # Extruder Shape (Plate)
- 21259:251 # Extruder Shape (Rod)
- 21259:252 # Extruder Shape (Bolt)
- 21259:253 # Extruder Shape (Ring)
- 21259:254 # Extruder Shape (Cell)
- 21259:255 # Extruder Shape (Ingot)
- 21259:256 # Extruder Shape (Wire)
- 21259:257 # Extruder Shape (Casing)
- 21259:258 # Extruder Shape (Small Pipe)
- 21259:259 # Extruder Shape (Normal Pipe)
- 21259:260 # Extruder Shape (Large Pipe)
- 21259:261 # Extruder Shape (Block)
- 21259:262 # Extruder Shape (Sword Blade)
- 21259:263 # Extruder Shape (Pickaxe Head)
- 21259:264 # Extruder Shape (Shovel Head)
- 21259:265 # Extruder Shape (Axe Head)
- 21259:266 # Extruder Shape (Hoe Head)
- 21259:267 # Extruder Shape (Hammer Head)
- 21259:268 # Extruder Shape (File Head)
- 21259:269 # Extruder Shape (Saw Blade)
- 21259:270 # Extruder Shape (Gear)
- 21260:2 # Small Pile of Lazurite Dust
- 21260:3 # Small Pile of Pyrite Dust
- 21260:4 # Small Pile of Calcite Dust
- 21260:5 # Small Pile of Sodalite Dust
- 21260:6 # Small Pile of Netherrack Dust
- 21260:7 # Small Pile of Flint Dust
- 21260:8 # Small Pile of Sulfur Dust
- 21260:9 # Small Pile of Saltpeter Dust
- 21260:10 # Small Pile of Endstone Dust
- 21260:11 # Small Pile of Cinnabar Dust
- 21260:12 # Small Pile of Manganese Dust
- 21260:13 # Small Pile of Magnesium Dust
- 21260:14 # Small Pile of Sphalerite Dust
- 21260:15 # Small Pile of Wood Pulp
- 21260:17 # Small Pile of Bauxite Dust
- 21260:18 # Small Pile of Aluminium Dust
- 21260:19 # Small Pile of Titanium Dust
- 21260:20 # Small Pile of Chrome Dust
- 21260:21 # Small Pile of Electrum Dust
- 21260:22 # Small Pile of Tungsten Dust
- 21260:23 # Small Pile of Lead Dust
- 21260:24 # Small Pile of Zinc Dust
- 21260:25 # Small Pile of Brass Dust
- 21260:26 # Small Pile of Steel Dust
- 21260:27 # Small Pile of Platinum Dust
- 21260:28 # Small Pile of Nickel Dust
- 21260:29 # Small Pile of Invar Dust
- 21260:30 # Small Pile of Osmium Dust
- 21260:31 # Small Pile of Antimony Dust
- 21260:32 # Small Pile of Ruby Dust
- 21260:33 # Small Pile of Sapphire Dust
- 21260:34 # Small Pile of Green Sapphire Dust
- 21260:35 # Small Pile of Emerald Dust
- 21260:36 # Small Pile of Diamond Dust
- 21260:37 # Small Pile of Olivine Dust
- 21260:40 # Small Pile of Cupronickel Dust
- 21260:41 # Small Pile of Nichrome Dust
- 21260:42 # Small Pile of Kanthal Dust
- 21260:43 # Small Pile of Stainless Steel Dust
- 21260:44 # Small Pile of Galena Dust
- 21260:45 # Small Pile of Phosphorus Dust
- 21260:46 # Small Pile of Obsidian Dust
- 21260:47 # Small Pile of Charcoal Dust
- 21260:54 # Small Pile of Red Garnet Dust
- 21260:55 # Small Pile of Yellow Garnet Dust
- 21260:56 # Small Pile of Pyrope Dust
- 21260:57 # Small Pile of Almandine Dust
- 21260:58 # Small Pile of Spessartine Dust
- 21260:59 # Small Pile of Andradite Dust
- 21260:60 # Small Pile of Grossular Dust
- 21260:61 # Small Pile of Uvarovite Dust
- 21260:62 # Small Pile of Ashes
- 21260:63 # Small Pile of Dark Ashes
- 21260:64 # Small Pile of Redrock Dust
- 21260:65 # Small Pile of Marble Dust
- 21260:66 # Small Pile of Basalt Dust
- 21260:67 # Small Pile of Iridium Dust
- 21260:68 # Small Pile of Black Granite Dust
- 21260:69 # Small Pile of Red Granite Dust
- 21260:70 # Small Pile of Potassium Feldspar Dust
- 21260:71 # Small Pile of Biotite Dust
- 21260:80 # Small Pile of Thorium Dust
- 21260:239 # Small Pile of Tetrahedrite Dust
- 21260:240 # Small Pile of Coal Dust
- 21260:241 # Small Pile of Iron Dust
- 21260:242 # Small Pile of Gold Dust
- 21260:243 # Small Pile of Copper Dust
- 21260:244 # Small Pile of Tin Dust
- 21260:245 # Small Pile of Bronze Dust
- 21260:246 # Small Pile of Silver Dust
- 21260:247 # Small Pile of Clay Dust
- 21260:251 # Small Pile of Blaze Powder
- 21261:16 # Iridium Nugget
- 21261:17 # Silver Nugget
- 21261:18 # Aluminium Nugget
- 21261:19 # Titanium Nugget
- 21261:20 # Chrome Nugget
- 21261:21 # Electrum Nugget
- 21261:22 # Tungsten Nugget
- 21261:23 # Lead Nugget
- 21261:24 # Zinc Nugget
- 21261:25 # Brass Nugget
- 21261:26 # Steel Nugget
- 21261:27 # Platinum Nugget
- 21261:28 # Nickel Nugget
- 21261:29 # Invar Nugget
- 21261:30 # Osmium Nugget
- 21261:31 # Antimony Nugget
- 21261:241 # Iron Nugget
- 21261:243 # Copper Nugget
- 21261:245 # Bronze Nugget
- 21263:2 # Tiny Pile of Lazurite Dust
- 21263:3 # Tiny Pile of Pyrite Dust
- 21263:4 # Tiny Pile of Calcite Dust
- 21263:5 # Tiny Pile of Sodalite Dust
- 21263:6 # Tiny Pile of Netherrack Dust
- 21263:7 # Tiny Pile of Flint Dust
- 21263:8 # Tiny Pile of Sulfur Dust
- 21263:9 # Tiny Pile of Saltpeter Dust
- 21263:10 # Tiny Pile of Endstone Dust
- 21263:11 # Tiny Pile of Cinnabar Dust
- 21263:12 # Tiny Pile of Manganese Dust
- 21263:13 # Tiny Pile of Magnesium Dust
- 21263:14 # Tiny Pile of Sphalerite Dust
- 21263:15 # Tiny Pile of Wood Pulp
- 21263:17 # Tiny Pile of Bauxite Dust
- 21263:18 # Tiny Pile of Aluminium Dust
- 21263:19 # Tiny Pile of Titanium Dust
- 21263:20 # Tiny Pile of Chrome Dust
- 21263:21 # Tiny Pile of Electrum Dust
- 21263:22 # Tiny Pile of Tungsten Dust
- 21263:23 # Tiny Pile of Lead Dust
- 21263:24 # Tiny Pile of Zinc Dust
- 21263:25 # Tiny Pile of Brass Dust
- 21263:26 # Tiny Pile of Steel Dust
- 21263:27 # Tiny Pile of Platinum Dust
- 21263:28 # Tiny Pile of Nickel Dust
- 21263:29 # Tiny Pile of Invar Dust
- 21263:30 # Tiny Pile of Osmium Dust
- 21263:31 # Tiny Pile of Antimony Dust
- 21263:32 # Tiny Pile of Ruby Dust
- 21263:33 # Tiny Pile of Sapphire Dust
- 21263:34 # Tiny Pile of Green Sapphire Dust
- 21263:35 # Tiny Pile of Emerald Dust
- 21263:36 # Tiny Pile of Diamond Dust
- 21263:37 # Tiny Pile of Olivine Dust
- 21263:40 # Tiny Pile of Cupronickel Dust
- 21263:41 # Tiny Pile of Nichrome Dust
- 21263:42 # Tiny Pile of Kanthal Dust
- 21263:43 # Tiny Pile of Stainless Steel Dust
- 21263:44 # Tiny Pile of Galena Dust
- 21263:45 # Tiny Pile of Phosphorus Dust
- 21263:46 # Tiny Pile of Obsidian Dust
- 21263:47 # Tiny Pile of Charcoal Dust
- 21263:54 # Tiny Pile of Red Garnet Dust
- 21263:55 # Tiny Pile of Yellow Garnet Dust
- 21263:56 # Tiny Pile of Pyrope Dust
- 21263:57 # Tiny Pile of Almandine Dust
- 21263:58 # Tiny Pile of Spessartine Dust
- 21263:59 # Tiny Pile of Andradite Dust
- 21263:60 # Tiny Pile of Grossular Dust
- 21263:61 # Tiny Pile of Uvarovite Dust
- 21263:62 # Tiny Pile of Ashes
- 21263:63 # Tiny Pile of Dark Ashes
- 21263:64 # Tiny Pile of Redrock Dust
- 21263:65 # Tiny Pile of Marble Dust
- 21263:66 # Tiny Pile of Basalt Dust
- 21263:67 # Tiny Pile of Iridium Dust
- 21263:68 # Tiny Pile of Black Granite Dust
- 21263:69 # Tiny Pile of Red Granite Dust
- 21263:70 # Tiny Pile of Potassium Feldspar Dust
- 21263:71 # Tiny Pile of Biotite Dust
- 21263:80 # Tiny Pile of Thorium Dust
- 21263:239 # Tiny Pile of Tetrahedrite Dust
- 21263:240 # Tiny Pile of Coal Dust
- 21263:241 # Tiny Pile of Iron Dust
- 21263:242 # Tiny Pile of Gold Dust
- 21263:243 # Tiny Pile of Copper Dust
- 21263:244 # Tiny Pile of Tin Dust
- 21263:245 # Tiny Pile of Bronze Dust
- 21263:246 # Tiny Pile of Silver Dust
- 21263:247 # Tiny Pile of Clay Dust
- 21263:248 # Tiny Pile of Gunpowder
- 21263:251 # Tiny Pile of Blaze Powder
- 21264:8 # Tiny Pile of Beryllium Dust
- 21264:9 # Tiny Pile of Boron Dust
- 21264:10 # Tiny Pile of Carbon Dust
- 21264:17 # Tiny Pile of Sodium Dust
- 21264:20 # Tiny Pile of Silicon Dust
- 21264:21 # Tiny Pile of Phosphor Dust
- 21264:25 # Tiny Pile of Potassium Dust
- 21264:26 # Tiny Pile of Calcium Dust
- 21264:29 # Tiny Pile of Vanadium Dust
- 21264:33 # Tiny Pile of Cobalt Dust
- 21264:45 # Tiny Pile of Yttrium Dust
- 21264:47 # Tiny Pile of Niobium Dust
- 21264:48 # Tiny Pile of Molybdenum Dust
- 21264:52 # Tiny Pile of Palladium Dust
- 21264:55 # Tiny Pile of Cadmium Dust
- 21264:56 # Tiny Pile of Indium Dust
- 21264:62 # Tiny Pile of Caesium Dust
- 21264:63 # Tiny Pile of Barium Dust
- 21264:65 # Tiny Pile of Cerium Dust
- 21264:67 # Tiny Pile of Neodymium Dust
- 21264:70 # Tiny Pile of Europium Dust
- 21264:78 # Tiny Pile of Lutetium Dust
- 21264:80 # Tiny Pile of Tantalum Dust
- 21264:97 # Tiny Pile of Uranium 235 Dust
- 21264:101 # Tiny Pile of Plutonium 241 Dust
- 21264:103 # Tiny Pile of Americium Dust
- 21264:129 # Tiny Pile of Neutronium Dust
- 21264:299 # Tiny Pile of Stone Dust
- 21264:304 # Tiny Pile of Wrought Iron Dust
- 21264:307 # Tiny Pile of Pig Iron Dust
- 21264:308 # Tiny Pile of Red Alloy Dust
- 21264:313 # Tiny Pile of Magnalium Dust
- 21264:314 # Tiny Pile of Soldering Alloy Dust
- 21264:315 # Tiny Pile of Battery Alloy Dust
- 21264:316 # Tiny Pile of Tungstensteel Dust
- 21264:317 # Tiny Pile of Osmiridium Dust
- 21264:319 # Tiny Pile of Adamantium Dust
- 21264:323 # Tiny Pile of Infused Gold Dust
- 21264:324 # Tiny Pile of Naquadah Dust
- 21264:325 # Tiny Pile of Naquadah Alloy Dust
- 21264:328 # Tiny Pile of Duranium Dust
- 21264:329 # Tiny Pile of Tritanium Dust
- 21264:330 # Tiny Pile of Thaumium Dust
- 21264:331 # Tiny Pile of Mithril Dust
- 21264:334 # Tiny Pile of Black Steel Dust
- 21264:335 # Tiny Pile of Damascus Steel Dust
- 21264:343 # Tiny Pile of Cobalt Brass Dust
- 21264:344 # Tiny Pile of Ultimet Dust
- 21264:506 # Tiny Pile of Nether Star Dust
- 21264:507 # Tiny Pile of Topaz Dust
- 21264:508 # Tiny Pile of Tanzanite Dust
- 21264:509 # Tiny Pile of Amethyst Dust
- 21264:510 # Tiny Pile of Opal Dust
- 21264:511 # Tiny Pile of Jasper Dust
- 21264:513 # Tiny Pile of Blue Topaz Dust
- 21264:514 # Tiny Pile of Amber Dust
- 21264:515 # Tiny Pile of Dilithium Dust
- 21264:516 # Tiny Pile of Certus Quartz Dust
- 21264:518 # Tiny Pile of Forcicium Dust
- 21264:519 # Tiny Pile of Forcillium Dust
- 21264:520 # Tiny Pile of Monazite Dust
- 21264:522 # Tiny Pile of Nether Quartz Dust
- 21264:523 # Tiny Pile of Quartzite Dust
- 21264:530 # Tiny Pile of Apatite Dust
- 21264:531 # Tiny Pile of Niter Dust
- 21264:537 # Tiny Pile of Jade Dust
- 21264:538 # Tiny Pile of Lignite Coal Dust
- 21264:803 # Tiny Pile of Sugar
- 21264:813 # Tiny Pile of Bluestone Dust
- 21264:814 # Tiny Pile of Nether Brick Dust
- 21264:817 # Tiny Pile of Salt
- 21264:818 # Tiny Pile of Hydrated Coal Dust
- 21264:824 # Tiny Pile of Cassiterite Dust
- 21264:825 # Tiny Pile of Chromite Dust
- 21264:827 # Tiny Pile of Cobaltite Dust
- 21264:837 # Tiny Pile of Silicon Dioxide Dust
- 21264:841 # Tiny Pile of Tungstate Dust
- 21264:843 # Tiny Pile of Pyrotheum Dust
- 21264:853 # Tiny Pile of Cobalt Hexahydrate Dust
- 21264:854 # Tiny Pile of Construction Foam Dust
- 21264:855 # Tiny Pile of Chalcopyrite Dust
- 21264:858 # Tiny Pile of Crude Oil Dust
- 21264:861 # Tiny Pile of Emery Dust
- 21264:862 # Tiny Pile of Epidote Dust
- 21264:865 # Tiny Pile of Graphite Dust
- 21264:867 # Tiny Pile of Greenstone Dust
- 21264:870 # Tiny Pile of Magnetite Dust
- 21264:871 # Tiny Pile of Malachite Dust
- 21264:872 # Tiny Pile of Migmatite Dust
- 21264:873 # Tiny Pile of Pitchblende
- 21264:876 # Tiny Pile of Siltstone Dust
- 21264:877 # Tiny Pile of Soapstone Dust
- 21264:879 # Tiny Pile of Chad
- 21264:880 # Tiny Pile of Rubber Pulp
- 21264:881 # Tiny Pile of Flour
- 21264:882 # Tiny Pile of Wulfenite Dust
- 21264:883 # Tiny Pile of Powellite Dust
- 21264:885 # Tiny Pile of Milk Powder
- 21264:886 # Tiny Pile of Chocolate Powder
- 21264:887 # Tiny Pile of Coffee Powder
- 21264:900 # Tiny Pile of Mirabilite Dust
- 21264:901 # Tiny Pile of Mica Dust
- 21264:902 # Tiny Pile of Talc
- 21264:903 # Tiny Pile of Trona Dust
- 21264:904 # Tiny Pile of Barite Dust
- 21264:905 # Tiny Pile of Bastnasite Dust
- 21264:906 # Tiny Pile of Garnierite Dust
- 21264:907 # Tiny Pile of Lepidolite Dust
- 21264:908 # Tiny Pile of Magnesite Dust
- 21264:909 # Tiny Pile of Pentlandite Dust
- 21264:910 # Tiny Pile of Scheelite Dust
- 21264:911 # Tiny Pile of Alunite Dust
- 21264:912 # Tiny Pile of Chrysotile Dust
- 21264:914 # Tiny Pile of Dolomite Dust
- 21264:915 # Tiny Pile of Wollastonite Dust
- 21264:916 # Tiny Pile of Zeolite Dust
- 21264:917 # Tiny Pile of Banded Iron Dust
- 21264:919 # Tiny Pile of Pollucite Dust
- 21264:920 # Tiny Pile of Spodumene Dust
- 21264:921 # Tiny Pile of Tantalite Dust
- 21264:922 # Tiny Pile of Uraninite Dust
- 21264:923 # Tiny Pile of Vanadium Magnetite Dust
- 21264:924 # Tiny Pile of Kyanite Dust
- 21264:925 # Tiny Pile of Perlite Dust
- 21264:926 # Tiny Pile of Pumice Dust
- 21264:927 # Tiny Pile of Bentonite
- 21264:928 # Tiny Pile of Fullers Earth
- 21264:929 # Tiny Pile of Kaolinite
- 21264:930 # Tiny Pile of Brown Limonite Dust
- 21264:931 # Tiny Pile of Yellow Limonite Dust
- 21264:932 # Tiny Pile of Vermiculite
- 21264:933 # Tiny Pile of Glauconite Dust
- 21264:934 # Tiny Pile of Gypsum Dust
- 21264:935 # Tiny Pile of Basaltic Mineral Sand
- 21264:936 # Tiny Pile of Granitic Mineral Sand
- 21264:937 # Tiny Pile of Cassiterite Sand
- 21264:938 # Tiny Pile of Garnet Sand
- 21264:939 # Tiny Pile of Quartz Sand
- 21264:940 # Tiny Pile of Volcanic Ashes
- 21264:941 # Tiny Pile of Borax Dust
- 21264:942 # Tiny Pile of Molybdenite Dust
- 21264:943 # Tiny Pile of Pyrolusite Dust
- 21264:944 # Tiny Pile of Rock Salt
- 21264:945 # Tiny Pile of Stibnite Dust
- 21264:946 # Tiny Pile of Asbestos Dust
- 21264:948 # Tiny Pile of Diatomite Dust
- 21264:1006 # Small Pile of Lithium Dust
- 21264:1008 # Small Pile of Beryllium Dust
- 21264:1009 # Small Pile of Boron Dust
- 21264:1010 # Small Pile of Carbon Dust
- 21264:1017 # Small Pile of Sodium Dust
- 21264:1020 # Small Pile of Silicon Dust
- 21264:1021 # Small Pile of Phosphor Dust
- 21264:1025 # Small Pile of Potassium Dust
- 21264:1026 # Small Pile of Calcium Dust
- 21264:1029 # Small Pile of Vanadium Dust
- 21264:1033 # Small Pile of Cobalt Dust
- 21264:1045 # Small Pile of Yttrium Dust
- 21264:1047 # Small Pile of Niobium Dust
- 21264:1048 # Small Pile of Molybdenum Dust
- 21264:1052 # Small Pile of Palladium Dust
- 21264:1055 # Small Pile of Cadmium Dust
- 21264:1056 # Small Pile of Indium Dust
- 21264:1062 # Small Pile of Caesium Dust
- 21264:1063 # Small Pile of Barium Dust
- 21264:1065 # Small Pile of Cerium Dust
- 21264:1067 # Small Pile of Neodymium Dust
- 21264:1070 # Small Pile of Europium Dust
- 21264:1078 # Small Pile of Lutetium Dust
- 21264:1080 # Small Pile of Tantalum Dust
- 21264:1097 # Small Pile of Uranium 235 Dust
- 21264:1101 # Small Pile of Plutonium 241 Dust
- 21264:1103 # Small Pile of Americium Dust
- 21264:1129 # Small Pile of Neutronium Dust
- 21264:1299 # Small Pile of Stone Dust
- 21264:1304 # Small Pile of Wrought Iron Dust
- 21264:1307 # Small Pile of Pig Iron Dust
- 21264:1308 # Small Pile of Red Alloy Dust
- 21264:1313 # Small Pile of Magnalium Dust
- 21264:1314 # Small Pile of Soldering Alloy Dust
- 21264:1315 # Small Pile of Battery Alloy Dust
- 21264:1316 # Small Pile of Tungstensteel Dust
- 21264:1317 # Small Pile of Osmiridium Dust
- 21264:1319 # Small Pile of Adamantium Dust
- 21264:1323 # Small Pile of Infused Gold Dust
- 21264:1324 # Small Pile of Naquadah Dust
- 21264:1325 # Small Pile of Naquadah Alloy Dust
- 21264:1328 # Small Pile of Duranium Dust
- 21264:1329 # Small Pile of Tritanium Dust
- 21264:1330 # Small Pile of Thaumium Dust
- 21264:1331 # Small Pile of Mithril Dust
- 21264:1334 # Small Pile of Black Steel Dust
- 21264:1335 # Small Pile of Damascus Steel Dust
- 21264:1343 # Small Pile of Cobalt Brass Dust
- 21264:1344 # Small Pile of Ultimet Dust
- 21264:1506 # Small Pile of Nether Star Dust
- 21264:1507 # Small Pile of Topaz Dust
- 21264:1508 # Small Pile of Tanzanite Dust
- 21264:1509 # Small Pile of Amethyst Dust
- 21264:1510 # Small Pile of Opal Dust
- 21264:1511 # Small Pile of Jasper Dust
- 21264:1513 # Small Pile of Blue Topaz Dust
- 21264:1514 # Small Pile of Amber Dust
- 21264:1515 # Small Pile of Dilithium Dust
- 21264:1516 # Small Pile of Certus Quartz Dust
- 21264:1518 # Small Pile of Forcicium Dust
- 21264:1519 # Small Pile of Forcillium Dust
- 21264:1520 # Small Pile of Monazite Dust
- 21264:1522 # Small Pile of Nether Quartz Dust
- 21264:1523 # Small Pile of Quartzite Dust
- 21264:1530 # Small Pile of Apatite Dust
- 21264:1531 # Small Pile of Niter Dust
- 21264:1537 # Small Pile of Jade Dust
- 21264:1538 # Small Pile of Lignite Coal Dust
- 21264:1803 # Small Pile of Sugar
- 21264:1813 # Small Pile of Bluestone Dust
- 21264:1814 # Small Pile of Nether Brick Dust
- 21264:1817 # Small Pile of Salt
- 21264:1818 # Small Pile of Hydrated Coal Dust
- 21264:1824 # Small Pile of Cassiterite Dust
- 21264:1825 # Small Pile of Chromite Dust
- 21264:1827 # Small Pile of Cobaltite Dust
- 21264:1837 # Small Pile of Silicon Dioxide Dust
- 21264:1841 # Small Pile of Tungstate Dust
- 21264:1843 # Small Pile of Pyrotheum Dust
- 21264:1846 # Small Pile of Redrock Dust
- 21264:1853 # Small Pile of Cobalt Hexahydrate Dust
- 21264:1854 # Small Pile of Construction Foam Dust
- 21264:1855 # Small Pile of Chalcopyrite Dust
- 21264:1858 # Small Pile of Crude Oil Dust
- 21264:1861 # Small Pile of Emery Dust
- 21264:1862 # Small Pile of Epidote Dust
- 21264:1865 # Small Pile of Graphite Dust
- 21264:1867 # Small Pile of Greenstone Dust
- 21264:1870 # Small Pile of Magnetite Dust
- 21264:1871 # Small Pile of Malachite Dust
- 21264:1872 # Small Pile of Migmatite Dust
- 21264:1873 # Small Pile of Pitchblende
- 21264:1876 # Small Pile of Siltstone Dust
- 21264:1877 # Small Pile of Soapstone Dust
- 21264:1879 # Small Pile of Chad
- 21264:1880 # Small Pile of Rubber Pulp
- 21264:1881 # Small Pile of Flour
- 21264:1882 # Small Pile of Wulfenite Dust
- 21264:1883 # Small Pile of Powellite Dust
- 21264:1885 # Small Pile of Milk Powder
- 21264:1886 # Small Pile of Chocolate Powder
- 21264:1887 # Small Pile of Coffee Powder
- 21264:1900 # Small Pile of Mirabilite Dust
- 21264:1901 # Small Pile of Mica Dust
- 21264:1902 # Small Pile of Talc
- 21264:1903 # Small Pile of Trona Dust
- 21264:1904 # Small Pile of Barite Dust
- 21264:1905 # Small Pile of Bastnasite Dust
- 21264:1906 # Small Pile of Garnierite Dust
- 21264:1907 # Small Pile of Lepidolite Dust
- 21264:1908 # Small Pile of Magnesite Dust
- 21264:1909 # Small Pile of Pentlandite Dust
- 21264:1910 # Small Pile of Scheelite Dust
- 21264:1911 # Small Pile of Alunite Dust
- 21264:1912 # Small Pile of Chrysotile Dust
- 21264:1914 # Small Pile of Dolomite Dust
- 21264:1915 # Small Pile of Wollastonite Dust
- 21264:1916 # Small Pile of Zeolite Dust
- 21264:1917 # Small Pile of Banded Iron Dust
- 21264:1919 # Small Pile of Pollucite Dust
- 21264:1920 # Small Pile of Spodumene Dust
- 21264:1921 # Small Pile of Tantalite Dust
- 21264:1922 # Small Pile of Uraninite Dust
- 21264:1923 # Small Pile of Vanadium Magnetite Dust
- 21264:1924 # Small Pile of Kyanite Dust
- 21264:1925 # Small Pile of Perlite Dust
- 21264:1926 # Small Pile of Pumice Dust
- 21264:1927 # Small Pile of Bentonite
- 21264:1928 # Small Pile of Fullers Earth
- 21264:1929 # Small Pile of Kaolinite
- 21264:1930 # Small Pile of Brown Limonite Dust
- 21264:1931 # Small Pile of Yellow Limonite Dust
- 21264:1932 # Small Pile of Vermiculite
- 21264:1933 # Small Pile of Glauconite Dust
- 21264:1934 # Small Pile of Gypsum Dust
- 21264:1935 # Small Pile of Basaltic Mineral Sand
- 21264:1936 # Small Pile of Granitic Mineral Sand
- 21264:1937 # Small Pile of Cassiterite Sand
- 21264:1938 # Small Pile of Garnet Sand
- 21264:1939 # Small Pile of Quartz Sand
- 21264:1940 # Small Pile of Volcanic Ashes
- 21264:1941 # Small Pile of Borax Dust
- 21264:1942 # Small Pile of Molybdenite Dust
- 21264:1943 # Small Pile of Pyrolusite Dust
- 21264:1944 # Small Pile of Rock Salt
- 21264:1945 # Small Pile of Stibnite Dust
- 21264:1946 # Small Pile of Asbestos Dust
- 21264:1948 # Small Pile of Diatomite Dust
- 21264:2008 # Beryllium Dust
- 21264:2009 # Boron Dust
- 21264:2010 # Carbon Dust
- 21264:2017 # Sodium Dust
- 21264:2020 # Silicon Dust
- 21264:2021 # Phosphor Dust
- 21264:2025 # Potassium Dust
- 21264:2026 # Calcium Dust
- 21264:2029 # Vanadium Dust
- 21264:2033 # Cobalt Dust
- 21264:2045 # Yttrium Dust
- 21264:2047 # Niobium Dust
- 21264:2048 # Molybdenum Dust
- 21264:2052 # Palladium Dust
- 21264:2055 # Cadmium Dust
- 21264:2056 # Indium Dust
- 21264:2062 # Caesium Dust
- 21264:2063 # Barium Dust
- 21264:2065 # Cerium Dust
- 21264:2067 # Neodymium Dust
- 21264:2070 # Europium Dust
- 21264:2078 # Lutetium Dust
- 21264:2080 # Tantalum Dust
- 21264:2097 # Uranium 235 Dust
- 21264:2101 # Plutonium 241 Dust
- 21264:2103 # Americium Dust
- 21264:2129 # Neutronium Dust
- 21264:2304 # Wrought Iron Dust
- 21264:2307 # Pig Iron Dust
- 21264:2308 # Red Alloy Dust
- 21264:2313 # Magnalium Dust
- 21264:2314 # Soldering Alloy Dust
- 21264:2315 # Battery Alloy Dust
- 21264:2316 # Tungstensteel Dust
- 21264:2317 # Osmiridium Dust
- 21264:2319 # Adamantium Dust
- 21264:2323 # Infused Gold Dust
- 21264:2324 # Naquadah Dust
- 21264:2325 # Naquadah Alloy Dust
- 21264:2327 # Refined Obsidian Dust
- 21264:2328 # Duranium Dust
- 21264:2329 # Tritanium Dust
- 21264:2330 # Thaumium Dust
- 21264:2331 # Mithril Dust
- 21264:2334 # Black Steel Dust
- 21264:2335 # Damascus Steel Dust
- 21264:2343 # Cobalt Brass Dust
- 21264:2344 # Ultimet Dust
- 21264:2506 # Nether Star Dust
- 21264:2507 # Topaz Dust
- 21264:2508 # Tanzanite Dust
- 21264:2509 # Amethyst Dust
- 21264:2510 # Opal Dust
- 21264:2511 # Jasper Dust
- 21264:2513 # Blue Topaz Dust
- 21264:2514 # Amber Dust
- 21264:2515 # Dilithium Dust
- 21264:2516 # Certus Quartz Dust
- 21264:2518 # Forcicium Dust
- 21264:2519 # Forcillium Dust
- 21264:2520 # Monazite Dust
- 21264:2521 # Force Dust
- 21264:2522 # Nether Quartz Dust
- 21264:2523 # Quartzite Dust
- 21264:2529 # Vinteum Dust
- 21264:2530 # Apatite Dust
- 21264:2531 # Niter Dust
- 21264:2537 # Jade Dust
- 21264:2538 # Lignite Coal Dust
- 21264:2812 # Nikolite Dust
- 21264:2813 # Bluestone Dust
- 21264:2814 # Nether Brick Dust
- 21264:2817 # Salt
- 21264:2824 # Cassiterite Dust
- 21264:2825 # Chromite Dust
- 21264:2827 # Cobaltite Dust
- 21264:2841 # Tungstate Dust
- 21264:2843 # Pyrotheum Dust
- 21264:2853 # Cobalt Hexahydrate Dust
- 21264:2854 # Construction Foam Dust
- 21264:2855 # Chalcopyrite Dust
- 21264:2858 # Crude Oil Dust
- 21264:2861 # Emery Dust
- 21264:2862 # Epidote Dust
- 21264:2865 # Graphite Dust
- 21264:2867 # Greenstone Dust
- 21264:2870 # Magnetite Dust
- 21264:2871 # Malachite Dust
- 21264:2872 # Migmatite Dust
- 21264:2873 # Pitchblende
- 21264:2876 # Siltstone Dust
- 21264:2877 # Soapstone Dust
- 21264:2879 # Chad
- 21264:2880 # Rubber Pulp
- 21264:2882 # Wulfenite Dust
- 21264:2883 # Powellite Dust
- 21264:2885 # Milk Powder
- 21264:2886 # Chocolate Powder
- 21264:2887 # Coffee Powder
- 21264:2900 # Mirabilite Dust
- 21264:2901 # Mica Dust
- 21264:2902 # Talc
- 21264:2903 # Trona Dust
- 21264:2904 # Barite Dust
- 21264:2905 # Bastnasite Dust
- 21264:2906 # Garnierite Dust
- 21264:2907 # Lepidolite Dust
- 21264:2908 # Magnesite Dust
- 21264:2909 # Pentlandite Dust
- 21264:2910 # Scheelite Dust
- 21264:2911 # Alunite Dust
- 21264:2912 # Chrysotile Dust
- 21264:2914 # Dolomite Dust
- 21264:2915 # Wollastonite Dust
- 21264:2916 # Zeolite Dust
- 21264:2917 # Banded Iron Dust
- 21264:2919 # Pollucite Dust
- 21264:2920 # Spodumene Dust
- 21264:2921 # Tantalite Dust
- 21264:2922 # Uraninite Dust
- 21264:2923 # Vanadium Magnetite Dust
- 21264:2924 # Kyanite Dust
- 21264:2925 # Perlite Dust
- 21264:2926 # Pumice Dust
- 21264:2927 # Bentonite
- 21264:2928 # Fullers Earth
- 21264:2929 # Kaolinite
- 21264:2930 # Brown Limonite Dust
- 21264:2931 # Yellow Limonite Dust
- 21264:2932 # Vermiculite
- 21264:2933 # Glauconite Dust
- 21264:2934 # Gypsum Dust
- 21264:2935 # Basaltic Mineral Sand
- 21264:2936 # Granitic Mineral Sand
- 21264:2937 # Cassiterite Sand
- 21264:2938 # Garnet Sand
- 21264:2939 # Quartz Sand
- 21264:2940 # Volcanic Ashes
- 21264:2941 # Borax Dust
- 21264:2942 # Molybdenite Dust
- 21264:2943 # Pyrolusite Dust
- 21264:2944 # Rock Salt
- 21264:2945 # Stibnite Dust
- 21264:2946 # Asbestos Dust
- 21264:2948 # Diatomite Dust
- 21264:3006 # Impure Pile of Lithium Dust
- 21264:3008 # Impure Pile of Beryllium Dust
- 21264:3048 # Impure Pile of Molybdenum Dust
- 21264:3052 # Impure Pile of Palladium Dust
- 21264:3067 # Impure Pile of Neodymium Dust
- 21264:3097 # Impure Pile of Uranium 235 Dust
- 21264:3323 # Impure Pile of Infused Gold Dust
- 21264:3324 # Impure Pile of Naquadah Dust
- 21264:3507 # Impure Pile of Topaz Dust
- 21264:3508 # Impure Pile of Tanzanite Dust
- 21264:3509 # Impure Pile of Amethyst Dust
- 21264:3510 # Impure Pile of Opal Dust
- 21264:3513 # Impure Pile of Blue Topaz Dust
- 21264:3514 # Impure Pile of Amber Dust
- 21264:3516 # Impure Pile of Certus Quartz Dust
- 21264:3520 # Impure Pile of Monazite Dust
- 21264:3522 # Impure Pile of Nether Quartz Dust
- 21264:3523 # Impure Pile of Quartzite Dust
- 21264:3530 # Impure Pile of Apatite Dust
- 21264:3538 # Impure Pile of Lignite Coal Dust
- 21264:3817 # Impure Pile of Salt
- 21264:3824 # Impure Pile of Cassiterite Dust
- 21264:3825 # Impure Pile of Chromite Dust
- 21264:3827 # Impure Pile of Cobaltite Dust
- 21264:3841 # Impure Pile of Tungstate Dust
- 21264:3855 # Impure Pile of Chalcopyrite Dust
- 21264:3865 # Impure Pile of Graphite Dust
- 21264:3870 # Impure Pile of Magnetite Dust
- 21264:3871 # Impure Pile of Malachite Dust
- 21264:3873 # Impure Pile of Pitchblende
- 21264:3882 # Impure Pile of Wulfenite Dust
- 21264:3883 # Impure Pile of Powellite Dust
- 21264:3902 # Impure Pile of Talc
- 21264:3904 # Impure Pile of Barite Dust
- 21264:3905 # Impure Pile of Bastnasite Dust
- 21264:3906 # Impure Pile of Garnierite Dust
- 21264:3907 # Impure Pile of Lepidolite Dust
- 21264:3908 # Impure Pile of Magnesite Dust
- 21264:3909 # Impure Pile of Pentlandite Dust
- 21264:3910 # Impure Pile of Scheelite Dust
- 21264:3917 # Impure Pile of Banded Iron Dust
- 21264:3920 # Impure Pile of Spodumene Dust
- 21264:3921 # Impure Pile of Tantalite Dust
- 21264:3922 # Impure Pile of Uraninite Dust
- 21264:3923 # Impure Pile of Vanadium Magnetite Dust
- 21264:3927 # Impure Pile of Bentonite
- 21264:3930 # Impure Pile of Brown Limonite Dust
- 21264:3931 # Impure Pile of Yellow Limonite Dust
- 21264:3933 # Impure Pile of Glauconite Dust
- 21264:3937 # Impure Pile of Cassiterite Sand
- 21264:3942 # Impure Pile of Molybdenite Dust
- 21264:3943 # Impure Pile of Pyrolusite Dust
- 21264:3944 # Impure Pile of Rock Salt
- 21264:3945 # Impure Pile of Stibnite Dust
- 21264:3948 # Impure Pile of Diatomite Dust
- 21264:4006 # Purified Pile of Lithium Dust
- 21264:4008 # Purified Pile of Beryllium Dust
- 21264:4019 # Purified Pile of Aluminium Dust
- 21264:4022 # Purified Pile of Sulfur Dust
- 21264:4028 # Purified Pile of Titanium Dust
- 21264:4030 # Purified Pile of Chrome Dust
- 21264:4031 # Purified Pile of Manganese Dust
- 21264:4032 # Purified Pile of Iron Dust
- 21264:4034 # Purified Pile of Nickel Dust
- 21264:4035 # Purified Pile of Copper Dust
- 21264:4036 # Purified Pile of Zinc Dust
- 21264:4048 # Purified Pile of Molybdenum Dust
- 21264:4052 # Purified Pile of Palladium Dust
- 21264:4054 # Purified Pile of Silver Dust
- 21264:4057 # Purified Pile of Tin Dust
- 21264:4067 # Purified Pile of Neodymium Dust
- 21264:4083 # Purified Pile of Osmium Dust
- 21264:4084 # Purified Pile of Iridium Dust
- 21264:4085 # Purified Pile of Platinum Dust
- 21264:4086 # Purified Pile of Gold Dust
- 21264:4089 # Purified Pile of Lead Dust
- 21264:4096 # Purified Pile of Thorium Dust
- 21264:4097 # Purified Pile of Uranium 235 Dust
- 21264:4098 # Purified Pile of Uranium 238 Dust
- 21264:4100 # Purified Pile of Plutonium 244 Dust
- 21264:4323 # Purified Pile of Infused Gold Dust
- 21264:4324 # Purified Pile of Naquadah Dust
- 21264:4500 # Purified Pile of Diamond Dust
- 21264:4501 # Purified Pile of Emerald Dust
- 21264:4502 # Purified Pile of Ruby Dust
- 21264:4503 # Purified Pile of Sapphire Dust
- 21264:4504 # Purified Pile of Green Sapphire Dust
- 21264:4505 # Purified Pile of Olivine Dust
- 21264:4507 # Purified Pile of Topaz Dust
- 21264:4508 # Purified Pile of Tanzanite Dust
- 21264:4509 # Purified Pile of Amethyst Dust
- 21264:4510 # Purified Pile of Opal Dust
- 21264:4513 # Purified Pile of Blue Topaz Dust
- 21264:4514 # Purified Pile of Amber Dust
- 21264:4516 # Purified Pile of Certus Quartz Dust
- 21264:4520 # Purified Pile of Monazite Dust
- 21264:4522 # Purified Pile of Nether Quartz Dust
- 21264:4524 # Purified Pile of Lazurite Dust
- 21264:4525 # Purified Pile of Sodalite Dust
- 21264:4526 # Purified Pile of Lapis Dust
- 21264:4527 # Purified Pile of Red Garnet Dust
- 21264:4528 # Purified Pile of Yellow Garnet Dust
- 21264:4530 # Purified Pile of Apatite Dust
- 21264:4534 # Purified Pile of Phosphorus Dust
- 21264:4535 # Purified Pile of Coal Dust
- 21264:4538 # Purified Pile of Lignite Coal Dust
- 21264:4817 # Purified Pile of Salt
- 21264:4820 # Purified Pile of Almandine Dust
- 21264:4822 # Purified Pile of Bauxite Dust
- 21264:4824 # Purified Pile of Cassiterite Dust
- 21264:4825 # Purified Pile of Chromite Dust
- 21264:4826 # Purified Pile of Cinnabar Dust
- 21264:4827 # Purified Pile of Cobaltite Dust
- 21264:4830 # Purified Pile of Galena Dust
- 21264:4831 # Purified Pile of Grossular Dust
- 21264:4834 # Purified Pile of Pyrite Dust
- 21264:4835 # Purified Pile of Pyrope Dust
- 21264:4836 # Purified Pile of Saltpeter Dust
- 21264:4838 # Purified Pile of Spessartine Dust
- 21264:4839 # Purified Pile of Sphalerite Dust
- 21264:4840 # Purified Pile of Tetrahedrite Dust
- 21264:4841 # Purified Pile of Tungstate Dust
- 21264:4855 # Purified Pile of Chalcopyrite Dust
- 21264:4865 # Purified Pile of Graphite Dust
- 21264:4870 # Purified Pile of Magnetite Dust
- 21264:4871 # Purified Pile of Malachite Dust
- 21264:4873 # Purified Pile of Pitchblende
- 21264:4882 # Purified Pile of Wulfenite Dust
- 21264:4883 # Purified Pile of Powellite Dust
- 21264:4902 # Purified Pile of Talc
- 21264:4904 # Purified Pile of Barite Dust
- 21264:4905 # Purified Pile of Bastnasite Dust
- 21264:4906 # Purified Pile of Garnierite Dust
- 21264:4907 # Purified Pile of Lepidolite Dust
- 21264:4908 # Purified Pile of Magnesite Dust
- 21264:4909 # Purified Pile of Pentlandite Dust
- 21264:4910 # Purified Pile of Scheelite Dust
- 21264:4917 # Purified Pile of Banded Iron Dust
- 21264:4920 # Purified Pile of Spodumene Dust
- 21264:4921 # Purified Pile of Tantalite Dust
- 21264:4922 # Purified Pile of Uraninite Dust
- 21264:4923 # Purified Pile of Vanadium Magnetite Dust
- 21264:4927 # Purified Pile of Bentonite
- 21264:4930 # Purified Pile of Brown Limonite Dust
- 21264:4931 # Purified Pile of Yellow Limonite Dust
- 21264:4933 # Purified Pile of Glauconite Dust
- 21264:4937 # Purified Pile of Cassiterite Sand
- 21264:4942 # Purified Pile of Molybdenite Dust
- 21264:4943 # Purified Pile of Pyrolusite Dust
- 21264:4944 # Purified Pile of Rock Salt
- 21264:4945 # Purified Pile of Stibnite Dust
- 21264:4948 # Purified Pile of Diatomite Dust
- 21264:5006 # Crushed Lithium Ore
- 21264:5008 # Crushed Beryllium Ore
- 21264:5019 # Crushed Aluminium Ore
- 21264:5022 # Crushed Sulfur Ore
- 21264:5028 # Crushed Titanium Ore
- 21264:5031 # Crushed Manganese Ore
- 21264:5033 # Crushed Cobalt Ore
- 21264:5034 # Crushed Nickel Ore
- 21264:5036 # Crushed Zinc Ore
- 21264:5048 # Crushed Molybdenum Ore
- 21264:5052 # Crushed Palladium Ore
- 21264:5067 # Crushed Neodymium Ore
- 21264:5081 # Crushed Tungsten Ore
- 21264:5083 # Crushed Osmium Ore
- 21264:5084 # Crushed Iridium Ore
- 21264:5085 # Crushed Platinum Ore
- 21264:5096 # Crushed Thorium Ore
- 21264:5097 # Crushed Uranium 235 Ore
- 21264:5100 # Crushed Plutonium 244 Ore
- 21264:5323 # Crushed Infused Gold Ore
- 21264:5324 # Crushed Naquadah Ore
- 21264:5331 # Crushed Mithril Ore
- 21264:5500 # Crushed Diamond Ore
- 21264:5501 # Crushed Emerald Ore
- 21264:5502 # Crushed Ruby Ore
- 21264:5503 # Crushed Sapphire Ore
- 21264:5504 # Crushed Green Sapphire Ore
- 21264:5505 # Crushed Olivine Ore
- 21264:5507 # Crushed Topaz Ore
- 21264:5508 # Crushed Tanzanite Ore
- 21264:5509 # Crushed Amethyst Ore
- 21264:5510 # Crushed Opal Ore
- 21264:5513 # Crushed Blue Topaz Ore
- 21264:5514 # Crushed Amber Ore
- 21264:5516 # Crushed Certus Quartz Ore
- 21264:5520 # Crushed Monazite Ore
- 21264:5522 # Crushed Nether Quartz Ore
- 21264:5524 # Crushed Lazurite Ore
- 21264:5525 # Crushed Sodalite Ore
- 21264:5526 # Crushed Lapis Ore
- 21264:5527 # Crushed Red Garnet Ore
- 21264:5528 # Crushed Yellow Garnet Ore
- 21264:5530 # Crushed Apatite Ore
- 21264:5534 # Crushed Phosphorus Ore
- 21264:5535 # Crushed Coal Ore
- 21264:5538 # Crushed Lignite Coal Ore
- 21264:5817 # Crushed Salt Ore
- 21264:5820 # Crushed Almandine Ore
- 21264:5822 # Crushed Bauxite Ore
- 21264:5824 # Crushed Cassiterite Ore
- 21264:5825 # Crushed Chromite Ore
- 21264:5826 # Crushed Cinnabar Ore
- 21264:5827 # Crushed Cobaltite Ore
- 21264:5830 # Crushed Galena Ore
- 21264:5831 # Crushed Grossular Ore
- 21264:5834 # Crushed Pyrite Ore
- 21264:5835 # Crushed Pyrope Ore
- 21264:5836 # Crushed Saltpeter Ore
- 21264:5838 # Crushed Spessartine Ore
- 21264:5839 # Crushed Sphalerite Ore
- 21264:5840 # Crushed Tetrahedrite Ore
- 21264:5841 # Crushed Tungstate Ore
- 21264:5855 # Crushed Chalcopyrite Ore
- 21264:5865 # Crushed Graphite Ore
- 21264:5870 # Crushed Magnetite Ore
- 21264:5871 # Crushed Malachite Ore
- 21264:5873 # Ground Pitchblende
- 21264:5882 # Crushed Wulfenite Ore
- 21264:5883 # Crushed Powellite Ore
- 21264:5902 # Ground Talc
- 21264:5904 # Crushed Barite Ore
- 21264:5905 # Crushed Bastnasite Ore
- 21264:5906 # Crushed Garnierite Ore
- 21264:5907 # Crushed Lepidolite Ore
- 21264:5908 # Crushed Magnesite Ore
- 21264:5909 # Crushed Pentlandite Ore
- 21264:5910 # Crushed Scheelite Ore
- 21264:5917 # Crushed Banded Iron Ore
- 21264:5920 # Crushed Spodumene Ore
- 21264:5921 # Crushed Tantalite Ore
- 21264:5922 # Crushed Uraninite Ore
- 21264:5923 # Crushed Vanadium Magnetite Ore
- 21264:5927 # Ground Bentonite
- 21264:5930 # Crushed Brown Limonite Ore
- 21264:5931 # Crushed Yellow Limonite Ore
- 21264:5933 # Crushed Glauconite Ore
- 21264:5937 # Ground Cassiterite Sand
- 21264:5942 # Crushed Molybdenite Ore
- 21264:5943 # Crushed Pyrolusite Ore
- 21264:5944 # Crushed Rock Salt Ore
- 21264:5945 # Crushed Stibnite Ore
- 21264:5948 # Crushed Diatomite Ore
- 21264:6006 # Purified Lithium Ore
- 21264:6008 # Purified Beryllium Ore
- 21264:6019 # Purified Aluminium Ore
- 21264:6022 # Purified Sulfur Ore
- 21264:6028 # Purified Titanium Ore
- 21264:6031 # Purified Manganese Ore
- 21264:6034 # Purified Nickel Ore
- 21264:6036 # Purified Zinc Ore
- 21264:6048 # Purified Molybdenum Ore
- 21264:6052 # Purified Palladium Ore
- 21264:6067 # Purified Neodymium Ore
- 21264:6083 # Purified Osmium Ore
- 21264:6084 # Purified Iridium Ore
- 21264:6085 # Purified Platinum Ore
- 21264:6089 # Purified Lead Ore
- 21264:6096 # Purified Thorium Ore
- 21264:6097 # Purified Uranium 235 Ore
- 21264:6100 # Purified Plutonium 244 Ore
- 21264:6323 # Purified Infused Gold Ore
- 21264:6324 # Purified Naquadah Ore
- 21264:6500 # Purified Diamond Ore
- 21264:6501 # Purified Emerald Ore
- 21264:6502 # Purified Ruby Ore
- 21264:6503 # Purified Sapphire Ore
- 21264:6504 # Purified Green Sapphire Ore
- 21264:6505 # Purified Olivine Ore
- 21264:6507 # Purified Topaz Ore
- 21264:6508 # Purified Tanzanite Ore
- 21264:6509 # Purified Amethyst Ore
- 21264:6510 # Purified Opal Ore
- 21264:6513 # Purified Blue Topaz Ore
- 21264:6514 # Purified Amber Ore
- 21264:6516 # Purified Certus Quartz Ore
- 21264:6520 # Purified Monazite Ore
- 21264:6522 # Purified Nether Quartz Ore
- 21264:6524 # Purified Lazurite Ore
- 21264:6525 # Purified Sodalite Ore
- 21264:6526 # Purified Lapis Ore
- 21264:6527 # Purified Red Garnet Ore
- 21264:6528 # Purified Yellow Garnet Ore
- 21264:6530 # Purified Apatite Ore
- 21264:6534 # Purified Phosphorus Ore
- 21264:6535 # Purified Coal Ore
- 21264:6538 # Purified Lignite Coal Ore
- 21264:6817 # Purified Salt Ore
- 21264:6820 # Purified Almandine Ore
- 21264:6822 # Purified Bauxite Ore
- 21264:6824 # Purified Cassiterite Ore
- 21264:6825 # Purified Chromite Ore
- 21264:6826 # Purified Cinnabar Ore
- 21264:6827 # Purified Cobaltite Ore
- 21264:6830 # Purified Galena Ore
- 21264:6831 # Purified Grossular Ore
- 21264:6834 # Purified Pyrite Ore
- 21264:6835 # Purified Pyrope Ore
- 21264:6836 # Purified Saltpeter Ore
- 21264:6838 # Purified Spessartine Ore
- 21264:6839 # Purified Sphalerite Ore
- 21264:6840 # Purified Tetrahedrite Ore
- 21264:6841 # Purified Tungstate Ore
- 21264:6855 # Purified Chalcopyrite Ore
- 21264:6865 # Purified Graphite Ore
- 21264:6870 # Purified Magnetite Ore
- 21264:6871 # Purified Malachite Ore
- 21264:6873 # Purified Pitchblende
- 21264:6882 # Purified Wulfenite Ore
- 21264:6883 # Purified Powellite Ore
- 21264:6902 # Purified Talc
- 21264:6904 # Purified Barite Ore
- 21264:6905 # Purified Bastnasite Ore
- 21264:6906 # Purified Garnierite Ore
- 21264:6907 # Purified Lepidolite Ore
- 21264:6908 # Purified Magnesite Ore
- 21264:6909 # Purified Pentlandite Ore
- 21264:6910 # Purified Scheelite Ore
- 21264:6917 # Purified Banded Iron Ore
- 21264:6920 # Purified Spodumene Ore
- 21264:6921 # Purified Tantalite Ore
- 21264:6922 # Purified Uraninite Ore
- 21264:6923 # Purified Vanadium Magnetite Ore
- 21264:6927 # Purified Bentonite
- 21264:6930 # Purified Brown Limonite Ore
- 21264:6931 # Purified Yellow Limonite Ore
- 21264:6933 # Purified Glauconite Ore
- 21264:6937 # Purified Cassiterite Sand
- 21264:6942 # Purified Molybdenite Ore
- 21264:6943 # Purified Pyrolusite Ore
- 21264:6944 # Purified Rock Salt Ore
- 21264:6945 # Purified Stibnite Ore
- 21264:6948 # Purified Diatomite Ore
- 21264:7006 # Centrifuged Lithium Ore
- 21264:7008 # Centrifuged Beryllium Ore
- 21264:7019 # Centrifuged Aluminium Ore
- 21264:7022 # Centrifuged Sulfur Ore
- 21264:7028 # Centrifuged Titanium Ore
- 21264:7031 # Centrifuged Manganese Ore
- 21264:7032 # Centrifuged Iron Ore
- 21264:7034 # Centrifuged Nickel Ore
- 21264:7035 # Centrifuged Copper Ore
- 21264:7036 # Centrifuged Zinc Ore
- 21264:7048 # Centrifuged Molybdenum Ore
- 21264:7052 # Centrifuged Palladium Ore
- 21264:7054 # Centrifuged Silver Ore
- 21264:7057 # Centrifuged Tin Ore
- 21264:7067 # Centrifuged Neodymium Ore
- 21264:7083 # Centrifuged Osmium Ore
- 21264:7084 # Centrifuged Iridium Ore
- 21264:7085 # Centrifuged Platinum Ore
- 21264:7086 # Centrifuged Gold Ore
- 21264:7089 # Centrifuged Lead Ore
- 21264:7096 # Centrifuged Thorium Ore
- 21264:7097 # Centrifuged Uranium 235 Ore
- 21264:7098 # Centrifuged Uranium 238 Ore
- 21264:7100 # Centrifuged Plutonium 244 Ore
- 21264:7323 # Centrifuged Infused Gold Ore
- 21264:7324 # Centrifuged Naquadah Ore
- 21264:7500 # Centrifuged Diamond Ore
- 21264:7501 # Centrifuged Emerald Ore
- 21264:7502 # Centrifuged Ruby Ore
- 21264:7503 # Centrifuged Sapphire Ore
- 21264:7504 # Centrifuged Green Sapphire Ore
- 21264:7505 # Centrifuged Olivine Ore
- 21264:7507 # Centrifuged Topaz Ore
- 21264:7508 # Centrifuged Tanzanite Ore
- 21264:7509 # Centrifuged Amethyst Ore
- 21264:7510 # Centrifuged Opal Ore
- 21264:7513 # Centrifuged Blue Topaz Ore
- 21264:7514 # Centrifuged Amber Ore
- 21264:7516 # Centrifuged Certus Quartz Ore
- 21264:7520 # Centrifuged Monazite Ore
- 21264:7522 # Centrifuged Nether Quartz Ore
- 21264:7524 # Centrifuged Lazurite Ore
- 21264:7525 # Centrifuged Sodalite Ore
- 21264:7526 # Centrifuged Lapis Ore
- 21264:7527 # Centrifuged Red Garnet Ore
- 21264:7528 # Centrifuged Yellow Garnet Ore
- 21264:7530 # Centrifuged Apatite Ore
- 21264:7534 # Centrifuged Phosphorus Ore
- 21264:7535 # Centrifuged Coal Ore
- 21264:7538 # Centrifuged Lignite Coal Ore
- 21264:7817 # Centrifuged Salt Ore
- 21264:7820 # Centrifuged Almandine Ore
- 21264:7822 # Centrifuged Bauxite Ore
- 21264:7824 # Centrifuged Cassiterite Ore
- 21264:7825 # Centrifuged Chromite Ore
- 21264:7826 # Centrifuged Cinnabar Ore
- 21264:7827 # Centrifuged Cobaltite Ore
- 21264:7830 # Centrifuged Galena Ore
- 21264:7831 # Centrifuged Grossular Ore
- 21264:7834 # Centrifuged Pyrite Ore
- 21264:7835 # Centrifuged Pyrope Ore
- 21264:7836 # Centrifuged Saltpeter Ore
- 21264:7838 # Centrifuged Spessartine Ore
- 21264:7839 # Centrifuged Sphalerite Ore
- 21264:7840 # Centrifuged Tetrahedrite Ore
- 21264:7841 # Centrifuged Tungstate Ore
- 21264:7855 # Centrifuged Chalcopyrite Ore
- 21264:7865 # Centrifuged Graphite Ore
- 21264:7870 # Centrifuged Magnetite Ore
- 21264:7871 # Centrifuged Malachite Ore
- 21264:7873 # Centrifuged Pitchblende
- 21264:7882 # Centrifuged Wulfenite Ore
- 21264:7883 # Centrifuged Powellite Ore
- 21264:7902 # Centrifuged Talc
- 21264:7904 # Centrifuged Barite Ore
- 21264:7905 # Centrifuged Bastnasite Ore
- 21264:7906 # Centrifuged Garnierite Ore
- 21264:7907 # Centrifuged Lepidolite Ore
- 21264:7908 # Centrifuged Magnesite Ore
- 21264:7909 # Centrifuged Pentlandite Ore
- 21264:7910 # Centrifuged Scheelite Ore
- 21264:7917 # Centrifuged Banded Iron Ore
- 21264:7920 # Centrifuged Spodumene Ore
- 21264:7921 # Centrifuged Tantalite Ore
- 21264:7922 # Centrifuged Uraninite Ore
- 21264:7923 # Centrifuged Vanadium Magnetite Ore
- 21264:7927 # Centrifuged Bentonite
- 21264:7930 # Centrifuged Brown Limonite Ore
- 21264:7931 # Centrifuged Yellow Limonite Ore
- 21264:7933 # Centrifuged Glauconite Ore
- 21264:7937 # Centrifuged Cassiterite Sand
- 21264:7942 # Centrifuged Molybdenite Ore
- 21264:7943 # Centrifuged Pyrolusite Ore
- 21264:7944 # Centrifuged Rock Salt Ore
- 21264:7945 # Centrifuged Stibnite Ore
- 21264:7948 # Centrifuged Diatomite Ore
- 21264:8507 # Topaz
- 21264:8508 # Tanzanite
- 21264:8509 # Amethyst
- 21264:8510 # Opal
- 21264:8511 # Jasper
- 21264:8513 # Blue Topaz
- 21264:8514 # Amber
- 21264:8515 # Dilithium
- 21264:8516 # Certus Quartz
- 21264:8518 # Forcicium
- 21264:8519 # Forcillium
- 21264:8520 # Monazite
- 21264:8523 # Quartzite
- 21264:8524 # Lazurite
- 21264:8525 # Sodalite
- 21264:8530 # Apatite
- 21264:8531 # Niter
- 21264:8534 # Phosphorus
- 21264:8538 # Lignite Coal
- 21264:9008 # Beryllium Nugget
- 21264:9018 # Magnesium Nugget
- 21264:9020 # Silicon Nugget
- 21264:9029 # Vanadium Nugget
- 21264:9031 # Manganese Nugget
- 21264:9033 # Cobalt Nugget
- 21264:9045 # Yttrium Nugget
- 21264:9047 # Niobium Nugget
- 21264:9048 # Molybdenum Nugget
- 21264:9052 # Palladium Nugget
- 21264:9056 # Indium Nugget
- 21264:9065 # Cerium Nugget
- 21264:9067 # Neodymium Nugget
- 21264:9070 # Europium Nugget
- 21264:9078 # Lutetium Nugget
- 21264:9080 # Tantalum Nugget
- 21264:9096 # Thorium Nugget
- 21264:9097 # Uranium 235 Nugget
- 21264:9098 # Uranium 238 Nugget
- 21264:9100 # Plutonium 244 Nugget
- 21264:9101 # Plutonium 241 Nugget
- 21264:9103 # Americium Nugget
- 21264:9129 # Neutronium Nugget
- 21264:9304 # Wrought Iron Nugget
- 21264:9306 # Stainless Steel Nugget
- 21264:9307 # Pig Iron Nugget
- 21264:9308 # Red Alloy Nugget
- 21264:9310 # Cupronickel Nugget
- 21264:9311 # Nichrome Nugget
- 21264:9312 # Kanthal Nugget
- 21264:9313 # Magnalium Nugget
- 21264:9314 # Soldering Alloy Nugget
- 21264:9315 # Battery Alloy Nugget
- 21264:9316 # Tungstensteel Nugget
- 21264:9317 # Osmiridium Nugget
- 21264:9319 # Adamantium Nugget
- 21264:9320 # Fluxed Electrum Nugget
- 21264:9321 # Enderium Nugget
- 21264:9323 # Infused Gold Nugget
- 21264:9324 # Naquadah Nugget
- 21264:9325 # Naquadah Alloy Nugget
- 21264:9328 # Duranium Nugget
- 21264:9329 # Tritanium Nugget
- 21264:9330 # Thaumium Nugget
- 21264:9334 # Black Steel Nugget
- 21264:9335 # Damascus Steel Nugget
- 21264:9342 # Dark Iron Nugget
- 21264:9343 # Cobalt Brass Nugget
- 21264:9344 # Ultimet Nugget
- 21264:9521 # Force Nugget
- 21264:9880 # Rubber Chip
- 21264:11008 # Beryllium Ingot
- 21264:11018 # Magnesium Ingot
- 21264:11020 # Silicon Ingot
- 21264:11027 # Scandium Ingot
- 21264:11029 # Vanadium Ingot
- 21264:11031 # Manganese Ingot
- 21264:11033 # Cobalt Ingot
- 21264:11045 # Yttrium Ingot
- 21264:11047 # Niobium Ingot
- 21264:11048 # Molybdenum Ingot
- 21264:11052 # Palladium Ingot
- 21264:11056 # Indium Ingot
- 21264:11059 # Tellurium Ingot
- 21264:11062 # Caesium Ingot
- 21264:11065 # Cerium Ingot
- 21264:11066 # Praseodymium Ingot
- 21264:11067 # Neodymium Ingot
- 21264:11070 # Europium Ingot
- 21264:11078 # Lutetium Ingot
- 21264:11080 # Tantalum Ingot
- 21264:11097 # Uranium 235 Ingot
- 21264:11101 # Plutonium 241 Ingot
- 21264:11103 # Americium Ingot
- 21264:11129 # Neutronium Ingot
+ 21264:11300;Bronze Ingot (IndustrialCraft 2)
- 21264:11304 # Wrought Iron Ingot
- 21264:11307 # Pig Iron Ingot
- 21264:11308 # Red Alloy Ingot
- 21264:11309 # Blue Alloy Ingot
- 21264:11317 # Osmiridium Ingot
- 21264:11319 # Adamantium Ingot
- 21264:11320 # Fluxed Electrum Ingot
- 21264:11321 # Enderium Ingot
- 21264:11322 # HSLA Steel Ingot
- 21264:11323 # Infused Gold Ingot
- 21264:11324 # Naquadah Ingot
- 21264:11325 # Naquadah Alloy Ingot
- 21264:11327 # Refined Obsidian Ingot
- 21264:11328 # Duranium Ingot
- 21264:11329 # Tritanium Ingot
- 21264:11330 # Thaumium Ingot
- 21264:11331 # Mithril Ingot
- 21264:11334 # Black Steel Ingot
- 21264:11335 # Damascus Steel Ingot
- 21264:11338 # Ironwood Ingot
- 21264:11340 # Meteoric Iron Ingot
- 21264:11342 # Dark Iron Ingot
- 21264:11343 # Cobalt Brass Ingot
- 21264:11344 # Ultimet Ingot
- 21264:11521 # Force Ingot
- 21264:11880 # Rubber Bar
- 21264:11884 # Desh Ingot
- 21264:12045 # Hot Yttrium Ingot
- 21264:12081 # Hot Tungsten Ingot
- 21264:12312 # Hot Kanthal Ingot
- 21264:12344 # Hot Ultimet Ingot
- 21264:17008 # Beryllium Plate
- 21264:17031 # Manganese Plate
- 21264:17033 # Cobalt Plate
- 21264:17048 # Molybdenum Plate
- 21264:17052 # Palladium Plate
- 21264:17056 # Indium Plate
- 21264:17067 # Neodymium Plate
- 21264:17070 # Europium Plate
- 21264:17096 # Thorium Plate
- 21264:17097 # Uranium 235 Plate
- 21264:17098 # Uranium 238 Plate
- 21264:17100 # Plutonium 244 Plate
- 21264:17101 # Plutonium 241 Plate
- 21264:17103 # Americium Plate
- 21264:17129 # Neutronium Plate
- 21264:17304 # Wrought Iron Plate
- 21264:17307 # Pig Iron Plate
- 21264:17308 # Red Alloy Plate
- 21264:17310 # Cupronickel Plate
- 21264:17311 # Nichrome Plate
- 21264:17312 # Kanthal Plate
- 21264:17314 # Soldering Alloy Plate
- 21264:17317 # Osmiridium Plate
- 21264:17319 # Adamantium Plate
- 21264:17321 # Enderium Plate
- 21264:17323 # Infused Gold Plate
- 21264:17324 # Naquadah Plate
- 21264:17325 # Naquadah Alloy Plate
- 21264:17328 # Duranium Plate
- 21264:17329 # Tritanium Plate
- 21264:17330 # Thaumium Plate
- 21264:17331 # Mithril Plate
- 21264:17334 # Black Steel Plate
- 21264:17335 # Damascus Steel Plate
- 21264:17343 # Cobalt Brass Plate
- 21264:17344 # Ultimet Plate
- 21264:17506 # Nether Star Plate
- 21264:17507 # Topaz Plate
- 21264:17508 # Tanzanite Plate
- 21264:17509 # Amethyst Plate
- 21264:17510 # Opal Plate
- 21264:17511 # Jasper Plate
- 21264:17513 # Blue Topaz Plate
- 21264:17514 # Amber Plate
- 21264:17515 # Dilithium Plate
- 21264:17516 # Certus Quartz Plate
- 21264:17518 # Forcicium Plate
- 21264:17519 # Forcillium Plate
- 21264:17520 # Monazite Plate
- 21264:17522 # Nether Quartz Plate
- 21264:17524 # Lazurite Plate
- 21264:17525 # Sodalite Plate
- 21264:17534 # Phosphorus Plate
- 21264:17849 # Black Granite Plate
- 21264:17850 # Red Granite Plate
- 21264:17874 # Plastic Sheet
- 21264:17880 # Rubber Sheet
- 21264:23008 # Beryllium Rod
- 21264:23031 # Manganese Rod
- 21264:23032 # Iron Rod
- 21264:23033 # Cobalt Rod
- 21264:23048 # Molybdenum Rod
- 21264:23052 # Palladium Rod
- 21264:23056 # Indium Rod
- 21264:23067 # Neodymium Rod
- 21264:23070 # Europium Rod
- 21264:23096 # Thorium Rod
- 21264:23097 # Uranium 235 Rod
- 21264:23098 # Uranium 238 Rod
- 21264:23100 # Plutonium 244 Rod
- 21264:23101 # Plutonium 241 Rod
- 21264:23103 # Americium Rod
- 21264:23129 # Neutronium Rod
- 21264:23304 # Wrought Iron Rod
- 21264:23307 # Pig Iron Rod
- 21264:23310 # Cupronickel Rod
- 21264:23311 # Nichrome Rod
- 21264:23312 # Kanthal Rod
- 21264:23313 # Magnalium Rod
- 21264:23317 # Osmiridium Rod
- 21264:23319 # Adamantium Rod
- 21264:23314 # Soldering Alloy Rod
- 21264:23323 # Infused Gold Rod
- 21264:23324 # Naquadah Rod
- 21264:23325 # Naquadah Alloy Rod
- 21264:23328 # Duranium Rod
- 21264:23329 # Tritanium Rod
- 21264:23330 # Thaumium Rod
- 21264:23331 # Mithril Rod
- 21264:23334 # Black Steel Rod
- 21264:23335 # Damascus Steel Rod
- 21264:23343 # Cobalt Brass Rod
- 21264:23344 # Ultimet Rod
- 21264:23521 # Force Rod
- 21264:23880 # Rubber Rod
- 21264:24509 # Amethyst Lens
- 21264:24510 # Opal Lens
- 21264:24511 # Jasper Lens
- 21264:24513 # Blue Topaz Lens
- 21264:24515 # Dilithium Lens
- 21264:24532 # Enderpearl Lens
- 21264:24533 # Endereye Lens
- 21264:25129 # Neutronium Round
- 21264:25319 # Adamantium Round
- 21264:26008 # Beryllium Bolt
- 21264:26031 # Manganese Bolt
- 21264:26033 # Cobalt Bolt
- 21264:26048 # Molybdenum Bolt
- 21264:26052 # Palladium Bolt
- 21264:26056 # Indium Bolt
- 21264:26067 # Neodymium Bolt
- 21264:26096 # Thorium Bolt
- 21264:26097 # Uranium 235 Bolt
- 21264:26098 # Uranium 238 Bolt
- 21264:26100 # Plutonium 244 Bolt
- 21264:26101 # Plutonium 241 Bolt
- 21264:26129 # Neutronium Bolt
- 21264:26304 # Wrought Iron Bolt
- 21264:26307 # Pig Iron Bolt
- 21264:26310 # Cupronickel Bolt
- 21264:26311 # Nichrome Bolt
- 21264:26312 # Kanthal Bolt
- 21264:26313 # Magnalium Bolt
- 21264:26317 # Osmiridium Bolt
- 21264:26319 # Adamantium Bolt
- 21264:26322 # HSLA Steel Bolt
- 21264:26323 # Infused Gold Bolt
- 21264:26324 # Naquadah Bolt
- 21264:26325 # Naquadah Alloy Bolt
- 21264:26328 # Duranium Bolt
- 21264:26329 # Tritanium Bolt
- 21264:26330 # Thaumium Bolt
- 21264:26334 # Black Steel Bolt
- 21264:26335 # Damascus Steel Bolt
- 21264:26343 # Cobalt Brass Bolt
- 21264:26344 # Ultimet Bolt
- 21264:26874 # Plastic Bolt
- 21264:26880 # Rubber Bolt
- 21264:27008 # Beryllium Screw
- 21264:27031 # Manganese Screw
- 21264:27033 # Cobalt Screw
- 21264:27048 # Molybdenum Screw
- 21264:27052 # Palladium Screw
- 21264:27056 # Indium Screw
- 21264:27067 # Neodymium Screw
- 21264:27096 # Thorium Screw
- 21264:27097 # Uranium 235 Screw
- 21264:27098 # Uranium 238 Screw
- 21264:27100 # Plutonium 244 Screw
- 21264:27101 # Plutonium 241 Screw
- 21264:27129 # Neutronium Screw
- 21264:27304 # Wrought Iron Screw
- 21264:27307 # Pig Iron Screw
- 21264:27310 # Cupronickel Screw
- 21264:27311 # Nichrome Screw
- 21264:27312 # Kanthal Screw
- 21264:27313 # Magnalium Screw
- 21264:27317 # Osmiridium Screw
- 21264:27319 # Adamantium Screw
- 21264:27323 # Infused Gold Screw
- 21264:27324 # Naquadah Screw
- 21264:27325 # Naquadah Alloy Screw
- 21264:27328 # Duranium Screw
- 21264:27329 # Tritanium Screw
- 21264:27330 # Thaumium Screw
- 21264:27334 # Black Steel Screw
- 21264:27335 # Damascus Steel Screw
- 21264:27343 # Cobalt Brass Screw
- 21264:27344 # Ultimet Screw
- 21264:27880 # Rubber Screw
- 21264:28008 # Beryllium Ring
- 21264:28018 # Magnesium Ring
- 21264:28019 # Aluminium Ring
- 21264:28020 # Silicon Ring
- 21264:28028 # Titanium Ring
- 21264:28029 # Vanadium Ring
- 21264:28030 # Chrome Ring
- 21264:28031 # Manganese Ring
- 21264:28032 # Iron Ring
- 21264:28033 # Cobalt Ring
- 21264:28034 # Nickel Ring
- 21264:28035 # Copper Ring
- 21264:28054 # Silver Ring
- 21264:28056 # Indium Ring
- 21264:28057 # Tin Ring
- 21264:28083 # Osmium Ring
- 21264:28084 # Iridium Ring
- 21264:28086 # Gold Ring
- 21264:28129 # Neutronium Ring
- 21264:28300 # Bronze Ring
- 21264:28301 # Brass Ring
- 21264:28302 # Invar Ring
- 21264:28304 # Wrought Iron Ring
- 21264:28305 # Steel Ring
- 21264:28306 # Stainless Steel Ring
- 21264:28307 # Pig Iron Ring
- 21264:28316 # Tungstensteel Ring
- 21264:28319 # Adamantium Ring
- 21264:28880 # Rubber Ring
- 21264:30039 # Arsenic Cell
- 21264:30324 # Naquadah Cell
- 21264:30515 # Dilithium Cell
- 21264:30518 # Forcicium Cell
- 21264:30519 # Forcillium Cell
- 21264:30534 # Phosphorus Cell
- 21264:30837 # Silicon Dioxide Cell
- 21264:30853 # Cobalt Hexahydrate Cell
- 21264:30885 # Milk Cell
- 21264:31017 # Sodium Plasma Cell
- 21264:31018 # Magnesium Plasma Cell
- 21264:31020 # Silicon Plasma Cell
- 21264:31021 # Phosphor Plasma Cell
- 21264:31022 # Sulfur Plasma Cell
- 21264:31025 # Potassium Plasma Cell
- 21264:31027 # Scandium Plasma Cell
- 21264:31045 # Yttrium Plasma Cell
- 21264:31066 # Praseodymium Plasma Cell
- 21264:31067 # Neodymium Plasma Cell
- 21264:31068 # Promethium Plasma Cell
- 21264:31069 # Samarium Plasma Cell
- 21264:31072 # Terbium Plasma Cell
- 21264:31076 # Thulium Plasma Cell
- 21264:31077 # Ytterbium Plasma Cell
- 21264:32000 # Copper GT Credit
- 21264:32001 # Cupronickel GT Credit
- 21264:32002 # Silver GT Credit
- 21264:32003 # Gold GT Credit
- 21264:32004 # Platinum GT Credit
- 21264:32005 # Osmium GT Credit
- 21264:32006 # Naquadah GT Credit
- 21264:32007 # Neutronium GT Credit
- 21264:32008 # Ancient Gold Coin
- 21264:32009 # Doge Coin
- 21264:32010 # Chocolate Coin
- 21264:32100 # Purple Drink
- 21264:32301 # Mold (Plate)
- 21264:32302 # Mold (Casing)
- 21264:32303 # Mold (Gear)
- 21264:32500 # Plumbilia Leaf
- 21264:32501 # Argentia Leaf
- 21264:32503 # Ferru Leaf
- 21264:32504 # Aurelia Leaf
- 21264:32511 # Bobs-Yer-Uncle-Berry
- 21264:32520 # Milk Wart
- 21264:32530 # Coppon Fiber
- 21264:32540 # Tine Twig
- 21264:32601 # Large Battery Hull
- 21264:32620 # Large Acid Battery
- 21264:32621 # Large Mercury Battery
- 21264:32628 # Large Lithium Battery
- 21264:32629 # Large Sodium Battery
- 21264:32697 # Lapotronic Energy Orb
- 21264:32698 # Zero Point Module
- 21264:32765 # Mc Guffium 239
- 21265:32 # Iron Sword Blade
- 21265:300 # Bronze Sword Blade
- 21265:1032 # Iron Pickaxe Head
- 21265:1300 # Bronze Pickaxe Head
- 21265:2032 # Iron Shovel Head
- 21265:2300 # Bronze Shovel Head
- 21265:3032 # Iron Axe Head
- 21265:3300 # Bronze Axe Head
- 21265:5032 # Iron Hammer Head
- 21265:5300 # Bronze Hammer Head
- 21265:31019 # Aluminium Gear
- 21265:31035 # Copper Gear
- 21265:31052 # Palladium Gear
- 21265:31057 # Tin Gear
- 21265:31086 # Gold Gear
- 21265:31129 # Neutronium Gear
- 21265:31299 # Stone Gear
- 21265:31301 # Brass Gear
- 21265:31302 # Invar Gear
- 21265:31303 # Electrum Gear
- 21265:31322 # HSLA Steel Gear
- 21265:31325 # Naquadah Alloy Gear
- 21265:31343 # Cobalt Brass Gear
- 21265:31344 # Ultimet Gear
- 21265:31500 # Diamond Gear
- 21265:31521 # Force Gear
- 21266 # Integrated Circuit
- 21290 # 60k He Coolant Cell
- 21291 # 180k He Coolant Cell
- 21292 # 360k He Coolant Cell
- 21296 # Iridium Neutron Reflector
- 21326:1 # Electric Wrench
- 21288;Item # Sonictron
- 21299 # Data Orb
- 21321 # Screwdriver
- 21329 # Iron Hammer
- 21330 # Bronze Hammer
- 21331 # Steel Hammer
- 21336 # Bronze Turbine Rotor
- 21385 # Steel Sword
- 21386 # Steel Pickaxe
- 21387 # Steel Shovel
- 21388 # Steel Axe
- 21389 # Steel Hoe

* IndustrialCraft 2
- 4000 # Copper Ore
- 4001 # Tin Ore
- 4002;Block # Uranium Ore
- 4003 # Lead Ore
- 4004 # Copper Block
- 4004:1 # Tin Block
- 4004:2 # Bronze Block
- 4004:4 # Lead Block
- 4009 # Rubber Wood
- 4010 # Rubber Sheet
- 4015 # Reinforced Stone
- 4032 # Generator
- 4032:3 # Solar Panel
- 4032:7 # Semifluid Generator
- 4034:8 # Pump
- 4034:12 # Advanced Machine Casing
- 4035 # Teleporter
- 4035:8 # Replicator
- 30041 # Copper Plate
- 30041:2 # Bronze Plate
- 30041:3 # Gold Plate
- 30041:4 # Iron Plate
- 30041:6 # Lead Plate
- 30064:3 # Crushed Tin Ore
- 30064:5 # Crushed Silver Ore
- 30064:6 # Crushed Lead Ore
- 30065:7 # Tiny Pile of Lithium Dust
- 30066 # Bronze Dust
- 30066:1 # Clay Dust
- 30066:3 # Copper Dust
- 30066:4 # Gold Dust
- 30066:5 # Iron Dust
- 30066:6 # Silver Dust
- 30066:7 # Tin Dust
- 30066:9 # Stone Dust
- 30066:14 # Lithium Dust
- 30067 # Copper Ingot
- 30067:1 # Tin Ingot
- 30067:2 # Bronze Ingot
- 30067:5 # Lead Ingot
- 30067:6 # Silver Ingot
+ 30147;Iridium Plate (IndustrialCraft 2)
- 30190 # Advanced Circuit
- 30210:1 # Jetpack
- 30215 # Dynamite
- 30216 # Rubber

* Minecraft
+ 8;Water (Minecraft)
+ 9;Water (Minecraft)
- 19 # Sponge
- 56 # Diamond Ore
- 77;Stone # Button
- 39;Brown # Mushroom
- 40;Red # Mushroom
- 143;Wood # Button
- 326 # Water Bucket
- 352 # Bone
- 420 # Lead

* Pistronics
- 512 # Gear
- 10000 # Glue
- 10005 # Saw
- 10012 # Chisel
